INDEX VERSION 1.127+D:\Workspace - Life Care\.metadata\.plugins\org.eclipse.jdt.core
324845994.index
4072361492.index
3582983593.index
1682239958.index
3354010448.index
420264023.index
2419133913.index
422895941.index
1309659080.index
1079743069.index
1894732384.index
2958393419.index
3565442129.index
1445754223.index
2230488113.index
132184958.index
3664671647.index
3734562121.index
3529128448.index
4137677906.index
2163942070.index
2664599705.index
2022999914.index
1626829738.index
1430463436.index
3189365555.index
2514017248.index
1139502557.index
3981549526.index
4145484679.index
3752361040.index
3730379321.index
432547268.index
1217366274.index
510076961.index
2859605980.index
3271346611.index
115717333.index
3810904703.index
341380711.index
2769600559.index
2821903353.index
2004154877.index
684686094.index
3712872340.index
300466067.index
4129913421.index
3332426656.index
1876766167.index
4085209408.index
3473166083.index
442956674.index
1395761047.index
